digraph G {
	init__ [label="", style=invis, height=0, width=0];
	init__ -> 23;
23[label="1:23[1]"];
23-> 0 [style=dotted];
23-> 22 [style=filled];
22[label="3:22[0]"];
22-> 16 [style=dotted];
22-> 13 [style=filled];
16[label="7:16[32767]"];
16-> 0 [style=dotted];
16-> 1 [style=filled];
13[label="5:13[32767]"];
13-> 1 [style=dotted];
13-> 0 [style=filled];
0 [shape=box, label="0 [32767]", style=filled, shape=box, height=0.3, width=0.3];
1 [shape=box, label="1 [32767]", style=filled, shape=box, height=0.3, width=0.3];

}

