digraph BDD {
  28737396 [shape=box,label="ff"]
  27744459 [shape=box,label="tt"]
  26954214 [shape=circle,label="1"];
  26954214 -> 6336176 [label="ff"];
  26954214 -> 6718604 [label="tt"];
  6718604 [shape=circle,label="2"];
  6718604 -> 5442986 [label="ff"];
  6718604 -> 10891203 [label="tt"];
  10891203 [shape=circle,label="3"];
  10891203 -> 27744459 [label="ff"];
  10891203 -> 28737396 [label="tt"];
  5442986 [shape=circle,label="3"];
  5442986 -> 28737396 [label="ff"];
  5442986 -> 27744459 [label="tt"];
  6336176 [shape=circle,label="2"];
  6336176 -> 5442986 [label="ff"];
  6336176 -> 28737396 [label="tt"];
}
