digraph G {
	init__ [label="", style=invis, height=0, width=0];
	init__ -> 12;
12[label="1:12"];
12-> 9 [style=dotted];
12-> 0 [style=filled];
9[label="3:9"];
9-> 1 [style=dotted];
9-> 0 [style=filled];
0 [shape=box, label="0", style=filled, shape=box, height=0.3, width=0.3];
1 [shape=box, label="1", style=filled, shape=box, height=0.3, width=0.3];

}

